[
	
	
		{
			"slug": "accept-calls",
			"title": "Accept calls",
			"keywords" : "calls, accepting"
		} ,
	
		{
			"slug": "calendar-sync",
			"title": "Calendar sync",
			"keywords" : "calendar, sync, synchronization"
		} ,
	
		{
			"slug": "calls-notification",
			"title": "Calls notification",
			"keywords" : "calls, notifications"
		} ,
	
		{
			"slug": "dismiss-notifications",
			"title": "Dismiss notifications",
			"keywords" : "notifications, dismiss"
		} ,
	
		{
			"slug": "firmware-upload",
			"title": "Firmware upload",
			"keywords" : "firmware, upload"
		} ,
	
		{
			"slug": "notification",
			"title": "Generic notification",
			"keywords" : "notifications"
		} ,
	
		{
			"slug": "reject-calls",
			"title": "Reject calls",
			"keywords" : "calls, rejecting"
		} ,
	
		{
			"slug": "sleep-tracking",
			"title": "Sleep tracking",
			"keywords" : "sleep, tracking"
		} ,
	
		{
			"slug": "watchface-upload",
			"title": "Watchface upload",
			"keywords" : "firmware, upload, watchfaces"
		} ,
	
		{
			"slug": "weather-sync",
			"title": "Weather synchronization",
			"keywords" : "weather, sync, synchronization"
		} 
	
]